Binarizing data using data.table
…
nodal is the dataset in SMPracticals package where:

m is just a column of ones

r is an indicator of nodal involvement (1 for yes, 0 for no)

aged, stage, grade, xray, acid are categorical features

See here for more information.

setDT(nodal)
as_tibble(nodal)

## # A tibble: 53 x 7
##        m     r aged  stage
##    <dbl> <dbl> <fct> <fct>
##  1     1     1 0     1    
##  2     1     1 0     1    
##  3     1     1 0     1    
##  4     1     1 0     1    
##  5     1     1 0     1    
##  6     1     0 0     1    
##  7     1     1 0     0    
##  8     1     0 0     0    
##  9     1     0 0     0    
## 10     1     0 0     0    
## # ... with 43 more rows, and
## #   3 more variables:
## #   grade <fct>, xray <fct>,
## #   acid <fct>
We can transform this into nodal_binom, the data that has binomial responses:

nodal_binom <- nodal[
    , 
    .(m = sum(m), r = sum(r)), 
    by = c('aged', 'stage', 'grade', 'xray', 'acid')
][
    , 
    c('yes_node', 'no_node', 'm', 'r') := list(r, m - r, NULL, NULL)
][
    order(-yes_node, -no_node)
][]
as_tibble(nodal_binom)

## # A tibble: 23 x 7
##    aged  stage grade xray 
##    <fct> <fct> <fct> <fct>
##  1 0     1     1     1    
##  2 1     1     0     0    
##  3 0     1     1     0    
##  4 0     0     0     0    
##  5 1     1     0     0    
##  6 0     1     0     0    
##  7 0     0     1     0    
##  8 1     1     1     1    
##  9 1     1     0     1    
## 10 1     0     1     1    
## # ... with 13 more rows, and
## #   3 more variables:
## #   acid <fct>,
## #   yes_node <dbl>,
## #   no_node <dbl>
…
Are rich and rich_binary equivalent?

rich_binary[, is_rich := ifelse(is_rich == 'rich', 1L, 0L)]
setequal(rich[order(-is_rich, gender, criminal_record)], rich_binary)

## [1] TRUE

Yes, they are. Likewise, the binarized nodal_binom is the same as the original nodal:

as_tibble(nodal_binom) # binomial response

## # A tibble: 23 x 7
##    aged  stage grade xray 
##    <fct> <fct> <fct> <fct>
##  1 0     1     1     1    
##  2 1     1     0     0    
##  3 0     1     1     0    
##  4 0     0     0     0    
##  5 1     1     0     0    
##  6 0     1     0     0    
##  7 0     0     1     0    
##  8 1     1     1     1    
##  9 1     1     0     1    
## 10 1     0     1     1    
## # ... with 13 more rows, and
## #   3 more variables:
## #   acid <fct>,
## #   yes_node <dbl>,
## #   no_node <dbl>

# variable.name not specified
as_tibble(binarize_binom(nodal_binom, c('yes_node', 'no_node'))) 

## Randomly generated variable name used: LEXhgicUWS

## # A tibble: 53 x 6
##    aged  stage grade xray 
##    <chr> <chr> <chr> <chr>
##  1 0     1     1     1    
##  2 0     1     1     1    
##  3 0     1     1     1    
##  4 0     1     1     1    
##  5 0     1     1     1    
##  6 1     1     0     0    
##  7 1     1     0     0    
##  8 0     1     1     0    
##  9 0     1     1     0    
## 10 0     0     0     0    
## # ... with 43 more rows, and
## #   2 more variables:
## #   acid <chr>,
## #   LEXhgicUWS <chr>
…
nodal <- nodal[, -1]
as_tibble(change_form(
    nodal, 
    from = 'binary', to = 'poisson', 
    old_response = 'r', 
    category = c('yes', 'no'), 
    new_response = 'count'
))

## # A tibble: 46 x 7
##    aged  stage grade xray 
##    <fct> <fct> <fct> <fct>
##  1 0     1     1     1    
##  2 0     0     0     0    
##  3 1     1     1     0    
##  4 1     1     0     0    
##  5 0     0     0     0    
##  6 0     1     1     0    
##  7 1     1     0     0    
##  8 1     0     0     0    
##  9 1     0     0     0    
## 10 1     0     0     1    
## # ... with 36 more rows, and
## #   3 more variables:
## #   acid <fct>, r <fct>,
## #   count <dbl>
…
