Animation in R: the largest value until the current roll
…
Each row of mu_collection consists of \(n\) and \(\mu_n\), in this order, \(n = 0, 1, \dots, 50\):

(mu_collection <- 
    t(sapply(1:max_n, function(k){mu_k(v, P, k)})) %>%
    rbind(v, .) %>%
    cbind(0:max_n, .) %>%
    'colnames<-'(c('n', 0:6)) %>%
    as_tibble())

## # A tibble: 51 x 8
##        n   `0`          `1`       `2`     `3`    `4`   `5`   `6`
##    <dbl> <dbl>        <dbl>     <dbl>   <dbl>  <dbl> <dbl> <dbl>
##  1     0     1 0            0         0       0      0     0    
##  2     1     0 0.167        0.167     0.167   0.167  0.167 0.167
##  3     2     0 0.0278       0.0833    0.139   0.194  0.25  0.306
##  4     3     0 0.00463      0.0324    0.0880  0.171  0.282 0.421
##  5     4     0 0.000772     0.0116    0.0502  0.135  0.285 0.518
##  6     5     0 0.000129     0.00399   0.0271  0.100  0.270 0.598
##  7     6     0 0.0000214    0.00135   0.0143  0.0722 0.247 0.665
##  8     7     0 0.00000357   0.000454  0.00736 0.0507 0.221 0.721
##  9     8     0 0.000000595  0.000152  0.00375 0.0351 0.194 0.767
## 10     9     0 0.0000000992 0.0000507 0.00190 0.0241 0.168 0.806
## # ... with 41 more rows
…
