sudsoln package: analysis
…
(
top95_result <- top95_result %>%
    mutate(
        result = gsub("'", "", result),
        time = count_milli(time)
    )
)

## # A tibble: 95 x 4
##    result                                             time trial has_solved
##    <chr>                                             <dbl> <int> <lgl>     
##  1 41736982563215894795872431682543716979158643234~  0.331     0 TRUE      
##  2 52731648989654273131498756217245389668927135445~  0.352     0 TRUE      
##  3 61745982324873691553912846798256437137429158615~  0.270     0 TRUE      
##  4 48731269559368427112659738473584916291426583726~  6.46      8 TRUE      
##  5 96231485713458726957829641384796253165187394232~ 12.1      11 TRUE      
##  6 41683752998246537173512946857129864329374618586~  0.252     0 TRUE      
##  7 68215437995176384237489216543752891681693725429~  1.69      2 TRUE      
##  8 65248193783467915297132586446781259331579462829~  1.39      1 TRUE      
##  9 68215347995176483237489216543752891681694725329~  5.29      3 TRUE      
## 10 79235164854378612968142953715764829392413786583~  0.559     1 TRUE      
## # ... with 85 more rows
…
